digraph bids_work{
  bids_work_get_f_scan[label="get_f_scan (utility)", shape=box3d,style=filled, color=black, colorscheme=greys7 fillcolor=2];
  bids_work_metadata_file[label="metadata_file (utility)"];
  bids_work_f_bru2nii[label="f_bru2nii (extra_interfaces)"];
  bids_work_events_file[label="events_file (utility)"];
  bids_work_datasink[label="datasink (io)"];
  bids_work_get_f_scan -> bids_work_datasink;
  bids_work_get_f_scan -> bids_work_f_bru2nii;
  bids_work_get_f_scan -> bids_work_f_bru2nii;
  bids_work_get_f_scan -> bids_work_metadata_file;
  bids_work_get_f_scan -> bids_work_metadata_file;
  bids_work_get_f_scan -> bids_work_metadata_file;
  bids_work_get_f_scan -> bids_work_events_file;
  bids_work_get_f_scan -> bids_work_events_file;
  bids_work_get_f_scan -> bids_work_events_file;
  bids_work_metadata_file -> bids_work_events_file;
  bids_work_metadata_file -> bids_work_datasink;
  bids_work_f_bru2nii -> bids_work_events_file;
  bids_work_f_bru2nii -> bids_work_datasink;
  bids_work_events_file -> bids_work_datasink;
}
